,Evaluated (Group),Grader,AssessmentScore (Grader),AssessmentScore (Group)
0,FIS02A,AR0853,4.87,4.0
1,FIS02A,CR5742,4.0,4.0
2,FIS02A,CS6222,4.67,4.0
3,FIS02A,EP9494,4.0,4.0
4,FIS02A,GM8958,1.22,4.0
5,FIS02A,LG0446,4.0,4.0
6,FIS02A,MD4429,4.75,4.0
7,FIS02A,ML4686,4.87,4.0
8,FIS02A,RJ6843,4.0,4.0
9,FIS02A,ZR3342,4.75,4.0
10,FIS02B,LG0446,4.75,4.77
11,FIS02B,ZR3342,4.87,4.77
12,FIS02B,AJ9525,4.0,4.77
13,FIS02B,AL4293,4.75,4.77
14,FIS02B,AM0419,4.0,4.77
15,FIS02B,BB2361,4.87,4.77
16,FIS02B,BL8026,4.87,4.77
17,FIS02B,FJ9080,4.75,4.77
18,FIS02B,JG7726,4.67,4.77
19,FIS02B,VA184,4.87,4.77
20,FIS02B,VJ1866,4.87,4.77
21,FIS02C,EP9494,4.0,1.22
22,FIS02C,GM8958,4.0,1.22
23,FIS02C,RJ6843,1.22,1.22
24,FIS02C,AJ9525,3.0,1.22
25,FIS02C,AL4293,4.67,1.22
26,FIS02C,AM0419,1.32,1.22
27,FIS02C,FJ9080,1.16,1.22
28,FIS02C,AC822,4.0,1.22
29,FIS02C,CT9228,1.32,1.22
30,FIS02C,MF4888,4.75,1.22
31,FIS02C,MY6042,4.67,1.22
32,FIS02C,ZJ3512,1.22,1.22
33,FIS02D,AJ9525,2.26,1.32
34,FIS02D,AL4293,1.22,1.32
35,FIS02D,AM0419,1.32,1.32
36,FIS02D,BB2361,4.0,1.32
37,FIS02D,BL8026,4.87,1.32
38,FIS02D,FJ9080,4.0,1.32
39,FIS02D,JG7726,4.67,1.32
40,FIS02D,VA184,4.67,1.32
41,FIS02D,CV9262,4.0,1.32
42,FIS02D,CW0326,4.75,1.32
43,FIS02D,VC2889,4.87,1.32
44,FIS02D,FC6580,1.16,1.32
45,FIS02D,VJ1866,4.87,1.32
46,FIS02E,CR5742,4.75,3.92
47,FIS02E,CS6222,4.0,3.92
48,FIS02E,MD4429,4.75,3.92
49,FIS02E,AJ0927,4.75,3.92
50,FIS02E,CJ8167,1.22,3.92
51,FIS02E,GM9995,4.0,3.92
52,FIS02E,LJ8822,4.0,3.92
53,FIS02E,SJ7343,1.32,3.92
54,FIS02E,PB6549,2.93,3.92
55,FIS02E,VA574,4.0,3.92
56,FIS02E,ZV356,4.0,3.92
57,FIS02F,BB2361,4.0,4.0
58,FIS02F,BL8026,4.87,4.0
59,FIS02F,JG7726,4.87,4.0
60,FIS02F,VA184,4.67,4.0
61,FIS02F,AC822,4.0,4.0
62,FIS02F,CT9228,4.67,4.0
63,FIS02F,MF4888,4.0,4.0
64,FIS02F,MY6042,4.0,4.0
65,FIS02F,GM9995,2.83,4.0
66,FIS02F,PB6549,4.75,4.0
67,FIS02F,ZV356,3.0,4.0
68,FIS02F,MJ7343,4.87,4.0
69,FIS02F,VJ1866,4.87,4.0
70,FIS02G,CR5742,1.32,1.21
71,FIS02G,CS6222,4.87,1.21
72,FIS02G,MD4429,1.25,1.21
73,FIS02G,AC822,2.26,1.21
74,FIS02G,CT9228,3.0,1.21
75,FIS02G,MY6042,4.67,1.21
76,FIS02G,CV9262,4.0,1.21
77,FIS02G,CW0326,2.33,1.21
78,FIS02G,VC2889,4.0,1.21
79,FIS02G,FC6580,2.26,1.21
80,FIS02H,AR0853,4.75,1.25
81,FIS02H,LG0446,1.25,1.25
82,FIS02H,ML4686,3.0,1.25
83,FIS02H,ZR3342,4.0,1.25
84,FIS02H,AJ0927,4.0,1.25
85,FIS02H,CJ8167,2.26,1.25
86,FIS02H,GM9995,2.33,1.25
87,FIS02H,LJ8822,1.22,1.25
88,FIS02H,PB6549,1.32,1.25
89,FIS02H,VA574,4.0,1.25
90,FIS02H,ZV356,2.19,1.25
91,FIS02H,MJ7343,3.0,1.25
92,FIS02I,EP9494,4.75,4.67
93,FIS02I,GM8958,4.75,4.67
94,FIS02I,RJ6843,4.0,4.67
95,FIS02I,CW0326,4.0,4.67
96,FIS02I,VC2889,4.0,4.67
97,FIS02I,AJ0927,4.87,4.67
98,FIS02I,CJ8167,4.67,4.67
99,FIS02I,LJ8822,1.16,4.67
100,FIS02I,VA574,1.25,4.67
101,FIS02I,ZJ3512,4.87,4.67
102,FIS02J,CK534,1.22,1.18
103,FIS02J,CK6767,4.0,1.18
104,FIS02J,CR2813,4.0,1.18
105,FIS02J,DG0003,2.26,1.18
106,FIS02J,GV8991,2.33,1.18
107,FIS02J,LB9473,1.22,1.18
108,FIS02J,MY7491,1.32,1.18
109,FIS02J,PS3315,1.22,1.18
110,FIS02J,SJ314,4.0,1.18
111,FIS02J,TF2879,4.67,1.18
112,FIS02J,MM6607,1.22,1.18
113,FIS02K,AI7915,4.0,4.02
114,FIS02K,AR9371,4.0,4.02
115,FIS02K,CL6082,4.67,4.02
116,FIS02K,FJ4180,1.12,4.02
117,FIS02K,PE0546,4.0,4.02
118,FIS02K,VD3815,1.32,4.02
119,FIS02K,VM7672,2.83,4.02
120,FIS02K,LJ3888,4.67,4.02
121,FIS02K,PC6375,4.87,4.02
122,FIS02K,SV5679,4.87,4.02
123,FIS02L,LB9473,4.67,1.31
124,FIS02L,MY7491,1.32,1.31
125,FIS02L,SJ314,4.0,1.31
126,FIS02L,TF2879,4.67,1.31
127,FIS02L,AE2667,4.75,1.31
128,FIS02L,AS1826,4.0,1.31
129,FIS02L,MB4221,4.87,1.31
130,FIS02L,ZJ1217,4.0,1.31
131,FIS02L,TA251,1.22,1.31
132,FIS02L,HC5277,2.26,1.31
133,FIS02M,LB9473,1.22,3.0
134,FIS02M,MY7491,1.16,3.0
135,FIS02M,SJ314,4.0,3.0
136,FIS02M,TF2879,3.0,3.0
137,FIS02M,AI7915,1.32,3.0
138,FIS02M,AR9371,2.0,3.0
139,FIS02M,CL6082,1.32,3.0
140,FIS02M,AS1826,1.25,3.0
141,FIS02M,ZJ1217,4.0,3.0
142,FIS02M,AW4646,2.0,3.0
143,FIS02M,CH5277,3.0,3.0
144,FIS02M,TA251,1.22,3.0
145,FIS02N,DG0003,4.87,1.32
146,FIS02N,GV8991,4.87,1.32
147,FIS02N,PS3315,4.67,1.32
148,FIS02N,AE2667,4.75,1.32
149,FIS02N,MB4221,4.0,1.32
150,FIS02N,AJ4242,2.26,1.32
151,FIS02N,AA3981,4.0,1.32
152,FIS02N,CJ0162,1.32,1.32
153,FIS02N,MC0805,1.32,1.32
154,FIS02O,CK534,1.32,1.22
155,FIS02O,CR2813,4.87,1.22
156,FIS02O,AE2667,1.22,1.22
157,FIS02O,MB4221,1.22,1.22
158,FIS02O,LJ3888,4.67,1.22
159,FIS02O,PC6375,1.32,1.22
160,FIS02O,SV5679,4.87,1.22
161,FIS02P,FJ4180,4.0,4.01
162,FIS02P,PE0546,4.0,4.01
163,FIS02P,VD3815,4.0,4.01
164,FIS02P,VM7672,4.0,4.01
165,FIS02P,AS1826,4.75,4.01
166,FIS02P,ZJ1217,4.87,4.01
167,FIS02P,TA251,1.16,4.01
168,FIS02P,AJ4242,4.0,4.01
169,FIS02P,AA3981,4.0,4.01
170,FIS02P,HC5277,2.33,4.01
171,FIS02Q,CK6767,1.22,1.12
172,FIS02Q,DG0003,1.34,1.12
173,FIS02Q,GV8991,1.32,1.12
174,FIS02Q,PS3315,3.0,1.12
175,FIS02Q,FJ4180,4.0,1.12
176,FIS02Q,PE0546,4.0,1.12
177,FIS02Q,VD3815,4.0,1.12
178,FIS02Q,VM7672,2.83,1.12
179,FIS02Q,LJ3888,4.87,1.12
180,FIS02Q,PC6375,4.67,1.12
181,FIS02Q,SV5679,4.87,1.12
182,FIS02R,CR2813,4.87,3.03
183,FIS02R,AI7915,3.0,3.03
184,FIS02R,AR9371,2.19,3.03
185,FIS02R,CL6082,3.0,3.03
186,FIS02R,AW4646,3.0,3.03
187,FIS02R,AJ4242,3.0,3.03
188,FIS02R,AA3981,4.0,3.03
189,FIS02R,CJ0162,3.0,3.03
190,FIS02R,MC0805,3.0,3.03
